FIFO_tb.vcd
$date
	Tue May 26 19:06:44 2026
$end
$version
	ModelSim Version 10.5b
$end
$timescale
	1ps
$end

$scope module FIFO_tb $end
$var parameter 32 ! DATA_WIDTH $end
$var parameter 32 " DEPTH $end
$var parameter 32 # USE_XILINX_XPM $end
$var parameter 32 $ CLK_HALF_NS $end
$var parameter 32 % RESET_CYCLES $end
$var parameter 32 & TIMEOUT_NS $end
$var reg 1 ' clk $end
$var reg 1 ( rst $end
$var reg 1 ) wr_en $end
$var reg 1 * rd_en $end
$var reg 8 + din [7:0] $end
$var reg 8 , dout [7:0] $end
$var reg 1 - full $end
$var reg 1 . empty $end
$var integer 32 / pass_count $end
$var integer 32 0 fail_count $end

$scope task check $end
$upscope $end

$scope task do_reset $end
$upscope $end

$scope task write1 $end
$upscope $end

$scope task read1 $end
$upscope $end

$scope task drain_all $end
$upscope $end

$scope begin blk_overflow $end
$var reg 8 1 snap [7:0] $end
$upscope $end

$scope begin blk_drain $end
$var reg 8 2 got [7:0] $end
$upscope $end

$scope module dut $end
$var parameter 32 3 USE_XILINX_XPM $end
$var parameter 32 4 DATA_WIDTH $end
$var parameter 32 5 DEPTH $end
$var wire 1 6 clk $end
$var wire 1 7 rst $end
$var wire 1 8 wr_en $end
$var wire 1 9 rd_en $end
$var wire 1 : din [7] $end
$var wire 1 ; din [6] $end
$var wire 1 < din [5] $end
$var wire 1 = din [4] $end
$var wire 1 > din [3] $end
$var wire 1 ? din [2] $end
$var wire 1 @ din [1] $end
$var wire 1 A din [0] $end
$var reg 8 B dout [7:0] $end
$var reg 1 C full $end
$var reg 1 D empty $end

$scope begin gen_custom_fifo $end
$var parameter 32 E PTR_WIDTH $end
$var reg 3 F wr_ptr [2:0] $end
$var reg 3 G rd_ptr [2:0] $end
$var reg 3 H count [2:0] $end
$var wire 1 I do_write $end
$var wire 1 J do_read $end
$upscope $end
$upscope $end
$upscope $end
$enddefinitions $end
#0
$dumpvars
0'
1(
0)
0*
b0 +
bx ,
x-
x.
bx B
xC
xD
bx F
bx G
bx H
bx 1
bx 2
b1000 !
b100 "
b0 #
b101 $
b100 %
b100111000100000 &
b0 3
b1000 4
b100 5
b10 E
b0 /
b0 0
0I
0J
06
17
08
09
0A
0@
0?
0>
0=
0<
0;
0:
$end
#5000
1'
16
b0 F
b0 G
b0 H
b0 B
b0 ,
1D
0C
0-
1.
#10000
0'
06
#15000
1'
16
#20000
0'
06
#25000
1'
16
#30000
0'
06
#35000
1'
16
#40000
0'
06
0(
07
#45000
1'
16
#46000
b1 /
b10 /
#50000
0'
06
1*
19
#55000
1'
16
#56000
b11 /
0*
09
#60000
0'
06
#65000
1'
16
#66000
b100 /
#70000
0'
06
1)
b1 +
18
1A
1I
#75000
1'
16
b1 F
b1 H
0D
0.
#76000
0)
08
0I
#80000
0'
06
#85000
1'
16
#86000
b101 /
#90000
0'
06
1)
b10 +
18
0A
1@
1I
#95000
1'
16
b10 F
b10 H
#96000
0)
08
0I
#100000
0'
06
#105000
1'
16
#106000
b110 /
#110000
0'
06
1)
b11 +
18
1A
1I
#115000
1'
16
b11 F
b11 H
#116000
0)
08
0I
#120000
0'
06
#125000
1'
16
#126000
b111 /
#130000
0'
06
1)
b100 +
18
0A
0@
1?
1I
#135000
1'
16
b100 F
b100 H
1C
0I
1-
#136000
0)
08
#140000
0'
06
#145000
1'
16
#146000
b1000 /
b1001 /
b0 1
#150000
0'
06
1)
b11111111 +
18
1A
1@
1>
1=
1<
1;
1:
#155000
1'
16
#156000
0)
08
#160000
0'
06
#165000
1'
16
#166000
b1010 /
b1011 /
#170000
0'
06
1*
1)
b10101011 +
19
18
0?
0=
0;
1I
1J
#175000
1'
16
b101 F
b1 B
b1 G
b1 ,
#176000
0*
0)
09
08
0I
0J
#180000
0'
06
#185000
1'
16
#186000
b1100 /
b1101 /
#190000
0'
06
1*
19
1J
#195000
1'
16
b10 B
b10 G
b11 H
0C
b10 ,
0-
#196000
0*
09
0J
#200000
0'
06
#205000
1'
16
#206000
b10 2
b1110 /
#210000
0'
06
1*
19
1J
#215000
1'
16
b11 B
b11 G
b10 H
b11 ,
#216000
0*
09
0J
#220000
0'
06
#225000
1'
16
#226000
b11 2
b1111 /
#230000
0'
06
1*
19
1J
#235000
1'
16
b100 B
b100 G
b1 H
b100 ,
#236000
0*
09
0J
#240000
0'
06
#245000
1'
16
#246000
b100 2
b10000 /
#250000
0'
06
1*
19
1J
#255000
1'
16
b10101011 B
b101 G
b0 H
1D
b10101011 ,
0J
1.
#256000
0*
09
#260000
0'
06
#265000
1'
16
#266000
b10101011 2
b10001 /
#270000
0'
06
#275000
1'
16
#276000
b10010 /
b10011 /
b10100 /
#280000
0'
06
1*
1)
b11001010 +
19
18
0A
0<
1;
1I
#285000
1'
16
b110 F
b1 H
0D
1J
0.
#286000
0*
0)
09
08
0I
0J
#290000
0'
06
#295000
1'
16
#296000
b10101 /
#300000
0'
06
1*
19
1J
#305000
1'
16
b11001010 B
b110 G
b0 H
1D
b11001010 ,
0J
1.
#306000
0*
09
#310000
0'
06
#315000
1'
16
#316000
b10110 /
b10111 /
#320000
0'
06
1*
19
#325000
1'
16
#326000
b11000 /
0*
09
