SimpleBRAM_tb.vcd
$date
	Tue May 26 19:06:46 2026
$end
$version
	ModelSim Version 10.5b
$end
$timescale
	1ps
$end

$scope module SimpleBRAM_tb $end
$var parameter 32 ! DEPTH $end
$var parameter 32 " DATA_WIDTH $end
$var parameter 32 # ADDR_W $end
$var parameter 32 $ CLK_HALF $end
$var parameter 32 % TIMEOUT_NS $end
$var reg 1 & clk $end
$var reg 4 ' w_addr [3:0] $end
$var reg 4 ( r_addr [3:0] $end
$var reg 8 ) w_data [7:0] $end
$var reg 1 * w_en $end
$var reg 8 + r_data [7:0] $end
$var integer 32 , pass_count $end
$var integer 32 - fail_count $end
$var reg 1 . write_seen $end

$scope task chk $end
$upscope $end

$scope task do_write $end
$upscope $end

$scope task do_read $end
$upscope $end

$scope begin ap_no_x_rdata $end
$upscope $end

$scope module dut $end
$var parameter 32 / DEPTH $end
$var parameter 32 0 DATA_WIDTH $end
$var wire 1 1 clk $end
$var wire 1 2 w_addr [3] $end
$var wire 1 3 w_addr [2] $end
$var wire 1 4 w_addr [1] $end
$var wire 1 5 w_addr [0] $end
$var wire 1 6 w_data [7] $end
$var wire 1 7 w_data [6] $end
$var wire 1 8 w_data [5] $end
$var wire 1 9 w_data [4] $end
$var wire 1 : w_data [3] $end
$var wire 1 ; w_data [2] $end
$var wire 1 < w_data [1] $end
$var wire 1 = w_data [0] $end
$var wire 1 > w_en $end
$var wire 1 ? r_addr [3] $end
$var wire 1 @ r_addr [2] $end
$var wire 1 A r_addr [1] $end
$var wire 1 B r_addr [0] $end
$var reg 8 C r_data [7:0] $end
$upscope $end
$upscope $end
$enddefinitions $end
#0
$dumpvars
0&
b0 '
b0 (
b0 )
0*
bx +
bx C
0.
b10000 !
b1000 "
b100 #
b101 $
b100111000100000 %
b10000 /
b1000 0
b0 ,
b0 -
01
05
04
03
02
0=
0<
0;
0:
09
08
07
06
0>
0B
0A
0@
0?
$end
#5000
1&
11
#10000
0&
01
#15000
1&
11
#20000
0&
01
1*
b11 '
b10100101 )
1>
1=
1;
18
16
15
14
#25000
1&
11
1.
#30000
0&
01
0*
0>
#35000
1&
11
#40000
0&
01
b11 (
1B
1A
#45000
1&
11
b10100101 C
b10100101 +
#50000
0&
01
b1 ,
#55000
1&
11
#60000
0&
01
1*
b101 '
b11011110 )
1>
0=
1<
1:
19
08
17
04
13
#65000
1&
11
#70000
0&
01
0*
0>
#75000
1&
11
#80000
0&
01
b101 (
0A
1@
#85000
1&
11
b11011110 C
b11011110 +
#90000
0&
01
b10 ,
#95000
1&
11
#100000
0&
01
1*
b111 '
b10001 )
1>
1=
0<
0;
0:
07
06
14
#105000
1&
11
#110000
0&
01
0*
0>
#115000
1&
11
#120000
0&
01
1*
b100010 )
1>
0=
1<
09
18
#125000
1&
11
#130000
0&
01
0*
0>
#135000
1&
11
#140000
0&
01
b111 (
1A
#145000
1&
11
b100010 C
b100010 +
#150000
0&
01
b11 ,
#155000
1&
11
#160000
0&
01
1*
b1011 '
b11111111 )
1>
1=
1;
1:
19
17
16
03
12
#165000
1&
11
#170000
0&
01
0*
0>
#175000
1&
11
#180000
0&
01
1*
b0 )
1>
0=
0<
0;
0:
09
08
07
06
#185000
1&
11
#190000
0&
01
0*
0>
#195000
1&
11
#200000
0&
01
b1011 (
0@
1?
#205000
1&
11
b0 C
b0 +
#210000
0&
01
b100 ,
#215000
1&
11
#220000
0&
01
1*
b0 '
b1 )
1>
1=
05
04
02
#225000
1&
11
#230000
0&
01
0*
0>
#235000
1&
11
#240000
0&
01
1*
b1 '
b110 )
1>
0=
1<
1;
15
#245000
1&
11
#250000
0&
01
0*
0>
#255000
1&
11
#260000
0&
01
1*
b10 '
b1011 )
1>
1=
0;
1:
05
14
#265000
1&
11
#270000
0&
01
0*
0>
#275000
1&
11
#280000
0&
01
1*
b11 '
b10000 )
1>
0=
0<
0:
19
15
#285000
1&
11
#290000
0&
01
0*
0>
#295000
1&
11
#300000
0&
01
1*
b100 '
b10101 )
1>
1=
1;
05
04
13
#305000
1&
11
#310000
0&
01
0*
0>
#315000
1&
11
#320000
0&
01
1*
b101 '
b11010 )
1>
0=
1<
0;
1:
15
#325000
1&
11
#330000
0&
01
0*
0>
#335000
1&
11
#340000
0&
01
1*
b110 '
b11111 )
1>
1=
1;
05
14
#345000
1&
11
#350000
0&
01
0*
0>
#355000
1&
11
#360000
0&
01
1*
b111 '
b100100 )
1>
0=
0<
0:
09
18
15
#365000
1&
11
#370000
0&
01
0*
0>
#375000
1&
11
#380000
0&
01
1*
b1000 '
b101001 )
1>
1=
0;
1:
05
04
03
12
#385000
1&
11
#390000
0&
01
0*
0>
#395000
1&
11
#400000
0&
01
1*
b1001 '
b101110 )
1>
0=
1<
1;
15
#405000
1&
11
#410000
0&
01
0*
0>
#415000
1&
11
#420000
0&
01
1*
b1010 '
b110011 )
1>
1=
0;
0:
19
05
14
#425000
1&
11
#430000
0&
01
0*
0>
#435000
1&
11
#440000
0&
01
1*
b1011 '
b111000 )
1>
0=
0<
1:
15
#445000
1&
11
#450000
0&
01
0*
0>
#455000
1&
11
b111000 C
b111000 +
#460000
0&
01
1*
b1100 '
b111101 )
1>
1=
1;
05
04
13
#465000
1&
11
#470000
0&
01
0*
0>
#475000
1&
11
#480000
0&
01
1*
b1101 '
b1000010 )
1>
0=
1<
0;
0:
09
08
17
15
#485000
1&
11
#490000
0&
01
0*
0>
#495000
1&
11
#500000
0&
01
1*
b1110 '
b1000111 )
1>
1=
1;
05
14
#505000
1&
11
#510000
0&
01
0*
0>
#515000
1&
11
#520000
0&
01
1*
b1111 '
b1001100 )
1>
0=
0<
1:
15
#525000
1&
11
#530000
0&
01
0*
0>
#535000
1&
11
#540000
0&
01
b0 (
0B
0A
0?
#545000
1&
11
b1 C
b1 +
#550000
0&
01
b101 ,
#555000
1&
11
#560000
0&
01
b1 (
1B
#565000
1&
11
b110 C
b110 +
#570000
0&
01
b110 ,
#575000
1&
11
#580000
0&
01
b10 (
0B
1A
#585000
1&
11
b1011 C
b1011 +
#590000
0&
01
b111 ,
#595000
1&
11
#600000
0&
01
b11 (
1B
#605000
1&
11
b10000 C
b10000 +
#610000
0&
01
b1000 ,
#615000
1&
11
#620000
0&
01
b100 (
0B
0A
1@
#625000
1&
11
b10101 C
b10101 +
#630000
0&
01
b1001 ,
#635000
1&
11
#640000
0&
01
b101 (
1B
#645000
1&
11
b11010 C
b11010 +
#650000
0&
01
b1010 ,
#655000
1&
11
#660000
0&
01
b110 (
0B
1A
#665000
1&
11
b11111 C
b11111 +
#670000
0&
01
b1011 ,
#675000
1&
11
#680000
0&
01
b111 (
1B
#685000
1&
11
b100100 C
b100100 +
#690000
0&
01
b1100 ,
#695000
1&
11
#700000
0&
01
b1000 (
0B
0A
0@
1?
#705000
1&
11
b101001 C
b101001 +
#710000
0&
01
b1101 ,
#715000
1&
11
#720000
0&
01
b1001 (
1B
#725000
1&
11
b101110 C
b101110 +
#730000
0&
01
b1110 ,
#735000
1&
11
#740000
0&
01
b1010 (
0B
1A
#745000
1&
11
b110011 C
b110011 +
#750000
0&
01
b1111 ,
#755000
1&
11
#760000
0&
01
b1011 (
1B
#765000
1&
11
b111000 C
b111000 +
#770000
0&
01
b10000 ,
#775000
1&
11
#780000
0&
01
b1100 (
0B
0A
1@
#785000
1&
11
b111101 C
b111101 +
#790000
0&
01
b10001 ,
#795000
1&
11
#800000
0&
01
b1101 (
1B
#805000
1&
11
b1000010 C
b1000010 +
#810000
0&
01
b10010 ,
#815000
1&
11
#820000
0&
01
b1110 (
0B
1A
#825000
1&
11
b1000111 C
b1000111 +
#830000
0&
01
b10011 ,
#835000
1&
11
#840000
0&
01
b1111 (
1B
#845000
1&
11
b1001100 C
b1001100 +
#850000
0&
01
b10100 ,
