testdata.txt
F
=================================== FAILURES ===================================
_________________________ test_single_layer_interface __________________________

    def test_single_layer_interface():
>       run(
            verilog_sources=get_npu_sources(),
            toplevel='NPU',
            module='test_single_layer',
            simulator='verilator',
            timescale='1ns/1ps',
            compile_args=['--sv', '--timing',
                          '-Wno-TIMESCALEMOD', '-Wno-INITIALDLY',
                          '-Wno-WIDTHEXPAND', '-Wno-WIDTHTRUNC', '--public',
                          '--trace', '--trace-structs'],
            plus_args=['--trace'],
            sim_build='sim_build/NPU_build',
        )
E       SystemExit: FAILED 1 tests.

tb/CocoTB/NPU/test_single_layer_interface.py:15: SystemExit
------------------------------ Captured log call -------------------------------
INFO     cocotb:simulator.py:295 Running command: perl /home/lspaya/miniconda3/envs/HWBench/bin/verilator -cc --exe -Mdir /mnt/c/Users/Leona/GitHubRepo/EE470-FinalProject/sim_build/NPU_build -DCOCOTB_SIM=1 --top-module NPU --vpi --public-flat-rw --prefix Vtop -o NPU -LDFLAGS -Wl,-rpath,/home/lspaya/miniconda3/envs/HWBench/lib/python3.11/site-packages/cocotb/libs -L/home/lspaya/miniconda3/envs/HWBench/lib/python3.11/site-packages/cocotb/libs -lcocotbvpi_verilator --sv --timing -Wno-TIMESCALEMOD -Wno-INITIALDLY -Wno-WIDTHEXPAND -Wno-WIDTHTRUNC --public --trace --trace-structs --timescale 1ns/1ps /home/lspaya/miniconda3/envs/HWBench/lib/python3.11/site-packages/cocotb/share/lib/verilator/verilator.cpp /mnt/c/Users/Leona/GitHubRepo/EE470-FinalProject/src/packages/NPU_HW_params_pkg.sv /mnt/c/Users/Leona/GitHubRepo/EE470-FinalProject/src/packages/NPU_ISA_pkg.sv /mnt/c/Users/Leona/GitHubRepo/EE470-FinalProject/src/Arithmetic/Adder.sv /mnt/c/Users/Leona/GitHubRepo/EE470-FinalProject/src/Arithmetic/Multiplier.sv /mnt/c/Users/Leona/GitHubRepo/EE470-FinalProject/src/Memory/D_FF.sv /mnt/c/Users/Leona/GitHubRepo/EE470-FinalProject/src/Memory/DepFIFO.sv /mnt/c/Users/Leona/GitHubRepo/EE470-FinalProject/src/Memory/FIFO.sv /mnt/c/Users/Leona/GitHubRepo/EE470-FinalProject/src/Memory/PingPongBuffer.sv /mnt/c/Users/Leona/GitHubRepo/EE470-FinalProject/src/Memory/RegisterChain.sv /mnt/c/Users/Leona/GitHubRepo/EE470-FinalProject/src/Memory/SRAMHub.sv /mnt/c/Users/Leona/GitHubRepo/EE470-FinalProject/src/Memory/SimpleBRAM.sv /mnt/c/Users/Leona/GitHubRepo/EE470-FinalProject/src/Memory/psb.sv /mnt/c/Users/Leona/GitHubRepo/EE470-FinalProject/src/NPU/Blocks/PSB_Block.sv /mnt/c/Users/Leona/GitHubRepo/EE470-FinalProject/src/NPU/Blocks/Requant_Block.sv /mnt/c/Users/Leona/GitHubRepo/EE470-FinalProject/src/NPU/Blocks/SA_Block.sv /mnt/c/Users/Leona/GitHubRepo/EE470-FinalProject/src/NPU/Blocks/VPU_Block.sv /mnt/c/Users/Leona/GitHubRepo/EE470-FinalProject/src/NPU/DMA.sv /mnt/c/Users/Leona/GitHubRepo/EE470-FinalProject/src/NPU/Dispatch/Dispatch_DMA.sv /mnt/c/Users/Leona/GitHubRepo/EE470-FinalProject/src/NPU/Dispatch/Dispatch_PSB.sv /mnt/c/Users/Leona/GitHubRepo/EE470-FinalProject/src/NPU/Dispatch/Dispatch_REQ.sv /mnt/c/Users/Leona/GitHubRepo/EE470-FinalProject/src/NPU/Dispatch/Dispatch_SA.sv /mnt/c/Users/Leona/GitHubRepo/EE470-FinalProject/src/NPU/Dispatch/Dispatch_VPU.sv /mnt/c/Users/Leona/GitHubRepo/EE470-FinalProject/src/NPU/NPU.sv /mnt/c/Users/Leona/GitHubRepo/EE470-FinalProject/src/NPU/Sequencer.sv /mnt/c/Users/Leona/GitHubRepo/EE470-FinalProject/src/RequantPipeline/RequantPipeline.sv /mnt/c/Users/Leona/GitHubRepo/EE470-FinalProject/src/RequantPipeline/RequantSingleLane.sv /mnt/c/Users/Leona/GitHubRepo/EE470-FinalProject/src/VectorProcessingUnit/fu.sv /mnt/c/Users/Leona/GitHubRepo/EE470-FinalProject/src/VectorProcessingUnit/mux2to1.sv /mnt/c/Users/Leona/GitHubRepo/EE470-FinalProject/src/VectorProcessingUnit/vpe.sv /mnt/c/Users/Leona/GitHubRepo/EE470-FinalProject/src/VectorProcessingUnit/vpe_reg.sv /mnt/c/Users/Leona/GitHubRepo/EE470-FinalProject/src/VectorProcessingUnit/vpu.sv /mnt/c/Users/Leona/GitHubRepo/EE470-FinalProject/src/WeightStationarySA/MatrixMul.sv /mnt/c/Users/Leona/GitHubRepo/EE470-FinalProject/src/WeightStationarySA/ProcessingElement.sv /mnt/c/Users/Leona/GitHubRepo/EE470-FinalProject/src/WeightStationarySA/SA_Controller.sv /mnt/c/Users/Leona/GitHubRepo/EE470-FinalProject/src/WeightStationarySA/SA_top.sv
INFO     cocotb:simulator.py:266 - V e r i l a t i o n   R e p o r t: Verilator 5.048 2026-04-26 rev conda-forge build 0
INFO     cocotb:simulator.py:266 - Verilator: Built from 4.218 MB sources in 38 modules, into 23.685 MB in 28 C++ files needing 0.006 MB
INFO     cocotb:simulator.py:266 - Verilator: Walltime 2.526 s (elab=0.054, cvt=1.396, bld=0.000); cpu 1.660 s on 1 threads; allocated 111.977 MB
INFO     cocotb:simulator.py:295 Running command: make -C /mnt/c/Users/Leona/GitHubRepo/EE470-FinalProject/sim_build/NPU_build -f Vtop.mk
INFO     cocotb:simulator.py:266 make: Entering directory '/mnt/c/Users/Leona/GitHubRepo/EE470-FinalProject/sim_build/NPU_build'
INFO     cocotb:simulator.py:266 /home/lspaya/miniconda3/envs/HWBench/bin/x86_64-conda-linux-gnu-c++  -I.  -MMD -I/home/lspaya/miniconda3/envs/HWBench/share/verilator/include -I/home/lspaya/miniconda3/envs/HWBench/share/verilator/include/vltstd -DVERILATOR=1 -DVM_COVERAGE=0 -DVM_SC=0 -DVM_TIMING=0 -DVM_TRACE=1 -DVM_TRACE_FST=0 -DVM_TRACE_VCD=1 -DVM_TRACE_SAIF=0 -faligned-new -fcf-protection=none -Wno-bool-operation -Wno-int-in-bool-context -Wno-shadow -Wno-sign-compare -Wno-subobject-linkage -Wno-tautological-compare -Wno-uninitialized -Wno-unused-but-set-parameter -Wno-unused-but-set-variable -Wno-unused-parameter -Wno-unused-variable      -Os  -c -o verilator.o /home/lspaya/miniconda3/envs/HWBench/lib/python3.11/site-packages/cocotb/share/lib/verilator/verilator.cpp
INFO     cocotb:simulator.py:266 /home/lspaya/miniconda3/envs/HWBench/bin/x86_64-conda-linux-gnu-c++ -Os  -I.  -MMD -I/home/lspaya/miniconda3/envs/HWBench/share/verilator/include -I/home/lspaya/miniconda3/envs/HWBench/share/verilator/include/vltstd -DVERILATOR=1 -DVM_COVERAGE=0 -DVM_SC=0 -DVM_TIMING=0 -DVM_TRACE=1 -DVM_TRACE_FST=0 -DVM_TRACE_VCD=1 -DVM_TRACE_SAIF=0 -faligned-new -fcf-protection=none -Wno-bool-operation -Wno-int-in-bool-context -Wno-shadow -Wno-sign-compare -Wno-subobject-linkage -Wno-tautological-compare -Wno-uninitialized -Wno-unused-but-set-parameter -Wno-unused-but-set-variable -Wno-unused-parameter -Wno-unused-variable      -c -o verilated.o /home/lspaya/miniconda3/envs/HWBench/share/verilator/include/verilated.cpp
INFO     cocotb:simulator.py:266 /home/lspaya/miniconda3/envs/HWBench/bin/x86_64-conda-linux-gnu-c++ -Os  -I.  -MMD -I/home/lspaya/miniconda3/envs/HWBench/share/verilator/include -I/home/lspaya/miniconda3/envs/HWBench/share/verilator/include/vltstd -DVERILATOR=1 -DVM_COVERAGE=0 -DVM_SC=0 -DVM_TIMING=0 -DVM_TRACE=1 -DVM_TRACE_FST=0 -DVM_TRACE_VCD=1 -DVM_TRACE_SAIF=0 -faligned-new -fcf-protection=none -Wno-bool-operation -Wno-int-in-bool-context -Wno-shadow -Wno-sign-compare -Wno-subobject-linkage -Wno-tautological-compare -Wno-uninitialized -Wno-unused-but-set-parameter -Wno-unused-but-set-variable -Wno-unused-parameter -Wno-unused-variable      -c -o verilated_dpi.o /home/lspaya/miniconda3/envs/HWBench/share/verilator/include/verilated_dpi.cpp
INFO     cocotb:simulator.py:266 /home/lspaya/miniconda3/envs/HWBench/bin/x86_64-conda-linux-gnu-c++ -Os  -I.  -MMD -I/home/lspaya/miniconda3/envs/HWBench/share/verilator/include -I/home/lspaya/miniconda3/envs/HWBench/share/verilator/include/vltstd -DVERILATOR=1 -DVM_COVERAGE=0 -DVM_SC=0 -DVM_TIMING=0 -DVM_TRACE=1 -DVM_TRACE_FST=0 -DVM_TRACE_VCD=1 -DVM_TRACE_SAIF=0 -faligned-new -fcf-protection=none -Wno-bool-operation -Wno-int-in-bool-context -Wno-shadow -Wno-sign-compare -Wno-subobject-linkage -Wno-tautological-compare -Wno-uninitialized -Wno-unused-but-set-parameter -Wno-unused-but-set-variable -Wno-unused-parameter -Wno-unused-variable      -c -o verilated_vpi.o /home/lspaya/miniconda3/envs/HWBench/share/verilator/include/verilated_vpi.cpp
INFO     cocotb:simulator.py:266 /home/lspaya/miniconda3/envs/HWBench/bin/x86_64-conda-linux-gnu-c++ -Os  -I.  -MMD -I/home/lspaya/miniconda3/envs/HWBench/share/verilator/include -I/home/lspaya/miniconda3/envs/HWBench/share/verilator/include/vltstd -DVERILATOR=1 -DVM_COVERAGE=0 -DVM_SC=0 -DVM_TIMING=0 -DVM_TRACE=1 -DVM_TRACE_FST=0 -DVM_TRACE_VCD=1 -DVM_TRACE_SAIF=0 -faligned-new -fcf-protection=none -Wno-bool-operation -Wno-int-in-bool-context -Wno-shadow -Wno-sign-compare -Wno-subobject-linkage -Wno-tautological-compare -Wno-uninitialized -Wno-unused-but-set-parameter -Wno-unused-but-set-variable -Wno-unused-parameter -Wno-unused-variable      -c -o verilated_vcd_c.o /home/lspaya/miniconda3/envs/HWBench/share/verilator/include/verilated_vcd_c.cpp
INFO     cocotb:simulator.py:266 /home/lspaya/miniconda3/envs/HWBench/bin/x86_64-conda-linux-gnu-c++ -Os  -I.  -MMD -I/home/lspaya/miniconda3/envs/HWBench/share/verilator/include -I/home/lspaya/miniconda3/envs/HWBench/share/verilator/include/vltstd -DVERILATOR=1 -DVM_COVERAGE=0 -DVM_SC=0 -DVM_TIMING=0 -DVM_TRACE=1 -DVM_TRACE_FST=0 -DVM_TRACE_VCD=1 -DVM_TRACE_SAIF=0 -faligned-new -fcf-protection=none -Wno-bool-operation -Wno-int-in-bool-context -Wno-shadow -Wno-sign-compare -Wno-subobject-linkage -Wno-tautological-compare -Wno-uninitialized -Wno-unused-but-set-parameter -Wno-unused-but-set-variable -Wno-unused-parameter -Wno-unused-variable      -c -o verilated_threads.o /home/lspaya/miniconda3/envs/HWBench/share/verilator/include/verilated_threads.cpp
INFO     cocotb:simulator.py:266 /home/lspaya/miniconda3/envs/HWBench/bin/x86_64-conda-linux-gnu-c++ -Os  -I.  -MMD -I/home/lspaya/miniconda3/envs/HWBench/share/verilator/include -I/home/lspaya/miniconda3/envs/HWBench/share/verilator/include/vltstd -DVERILATOR=1 -DVM_COVERAGE=0 -DVM_SC=0 -DVM_TIMING=0 -DVM_TRACE=1 -DVM_TRACE_FST=0 -DVM_TRACE_VCD=1 -DVM_TRACE_SAIF=0 -faligned-new -fcf-protection=none -Wno-bool-operation -Wno-int-in-bool-context -Wno-shadow -Wno-sign-compare -Wno-subobject-linkage -Wno-tautological-compare -Wno-uninitialized -Wno-unused-but-set-parameter -Wno-unused-but-set-variable -Wno-unused-parameter -Wno-unused-variable      -x c++-header Vtop__pch.h -o Vtop__pch.h.fast.gch
INFO     cocotb:simulator.py:266 /home/lspaya/miniconda3/envs/HWBench/bin/x86_64-conda-linux-gnu-c++ -Os  -I.  -MMD -I/home/lspaya/miniconda3/envs/HWBench/share/verilator/include -I/home/lspaya/miniconda3/envs/HWBench/share/verilator/include/vltstd -DVERILATOR=1 -DVM_COVERAGE=0 -DVM_SC=0 -DVM_TIMING=0 -DVM_TRACE=1 -DVM_TRACE_FST=0 -DVM_TRACE_VCD=1 -DVM_TRACE_SAIF=0 -faligned-new -fcf-protection=none -Wno-bool-operation -Wno-int-in-bool-context -Wno-shadow -Wno-sign-compare -Wno-subobject-linkage -Wno-tautological-compare -Wno-uninitialized -Wno-unused-but-set-parameter -Wno-unused-but-set-variable -Wno-unused-parameter -Wno-unused-variable      -include Vtop__pch.h.fast -c Vtop.cpp
INFO     cocotb:simulator.py:266 /home/lspaya/miniconda3/envs/HWBench/bin/x86_64-conda-linux-gnu-c++ -Os  -I.  -MMD -I/home/lspaya/miniconda3/envs/HWBench/share/verilator/include -I/home/lspaya/miniconda3/envs/HWBench/share/verilator/include/vltstd -DVERILATOR=1 -DVM_COVERAGE=0 -DVM_SC=0 -DVM_TIMING=0 -DVM_TRACE=1 -DVM_TRACE_FST=0 -DVM_TRACE_VCD=1 -DVM_TRACE_SAIF=0 -faligned-new -fcf-protection=none -Wno-bool-operation -Wno-int-in-bool-context -Wno-shadow -Wno-sign-compare -Wno-subobject-linkage -Wno-tautological-compare -Wno-uninitialized -Wno-unused-but-set-parameter -Wno-unused-but-set-variable -Wno-unused-parameter -Wno-unused-variable      -include Vtop__pch.h.fast -c Vtop___024root__0.cpp
INFO     cocotb:simulator.py:266 /home/lspaya/miniconda3/envs/HWBench/bin/x86_64-conda-linux-gnu-c++ -Os  -I.  -MMD -I/home/lspaya/miniconda3/envs/HWBench/share/verilator/include -I/home/lspaya/miniconda3/envs/HWBench/share/verilator/include/vltstd -DVERILATOR=1 -DVM_COVERAGE=0 -DVM_SC=0 -DVM_TIMING=0 -DVM_TRACE=1 -DVM_TRACE_FST=0 -DVM_TRACE_VCD=1 -DVM_TRACE_SAIF=0 -faligned-new -fcf-protection=none -Wno-bool-operation -Wno-int-in-bool-context -Wno-shadow -Wno-sign-compare -Wno-subobject-linkage -Wno-tautological-compare -Wno-uninitialized -Wno-unused-but-set-parameter -Wno-unused-but-set-variable -Wno-unused-parameter -Wno-unused-variable      -include Vtop__pch.h.fast -c Vtop___024root__1.cpp
INFO     cocotb:simulator.py:266 /home/lspaya/miniconda3/envs/HWBench/bin/x86_64-conda-linux-gnu-c++ -Os  -I.  -MMD -I/home/lspaya/miniconda3/envs/HWBench/share/verilator/include -I/home/lspaya/miniconda3/envs/HWBench/share/verilator/include/vltstd -DVERILATOR=1 -DVM_COVERAGE=0 -DVM_SC=0 -DVM_TIMING=0 -DVM_TRACE=1 -DVM_TRACE_FST=0 -DVM_TRACE_VCD=1 -DVM_TRACE_SAIF=0 -faligned-new -fcf-protection=none -Wno-bool-operation -Wno-int-in-bool-context -Wno-shadow -Wno-sign-compare -Wno-subobject-linkage -Wno-tautological-compare -Wno-uninitialized -Wno-unused-but-set-parameter -Wno-unused-but-set-variable -Wno-unused-parameter -Wno-unused-variable      -include Vtop__pch.h.fast -c Vtop___024root__2.cpp
INFO     cocotb:simulator.py:266 /home/lspaya/miniconda3/envs/HWBench/bin/x86_64-conda-linux-gnu-c++ -Os  -I.  -MMD -I/home/lspaya/miniconda3/envs/HWBench/share/verilator/include -I/home/lspaya/miniconda3/envs/HWBench/share/verilator/include/vltstd -DVERILATOR=1 -DVM_COVERAGE=0 -DVM_SC=0 -DVM_TIMING=0 -DVM_TRACE=1 -DVM_TRACE_FST=0 -DVM_TRACE_VCD=1 -DVM_TRACE_SAIF=0 -faligned-new -fcf-protection=none -Wno-bool-operation -Wno-int-in-bool-context -Wno-shadow -Wno-sign-compare -Wno-subobject-linkage -Wno-tautological-compare -Wno-uninitialized -Wno-unused-but-set-parameter -Wno-unused-but-set-variable -Wno-unused-parameter -Wno-unused-variable      -include Vtop__pch.h.fast -c Vtop___024root__3.cpp
INFO     cocotb:simulator.py:266 /home/lspaya/miniconda3/envs/HWBench/bin/x86_64-conda-linux-gnu-c++ -Os  -I.  -MMD -I/home/lspaya/miniconda3/envs/HWBench/share/verilator/include -I/home/lspaya/miniconda3/envs/HWBench/share/verilator/include/vltstd -DVERILATOR=1 -DVM_COVERAGE=0 -DVM_SC=0 -DVM_TIMING=0 -DVM_TRACE=1 -DVM_TRACE_FST=0 -DVM_TRACE_VCD=1 -DVM_TRACE_SAIF=0 -faligned-new -fcf-protection=none -Wno-bool-operation -Wno-int-in-bool-context -Wno-shadow -Wno-sign-compare -Wno-subobject-linkage -Wno-tautological-compare -Wno-uninitialized -Wno-unused-but-set-parameter -Wno-unused-but-set-variable -Wno-unused-parameter -Wno-unused-variable      -include Vtop__pch.h.fast -c Vtop___024root__4.cpp
INFO     cocotb:simulator.py:266 /home/lspaya/miniconda3/envs/HWBench/bin/x86_64-conda-linux-gnu-c++ -Os  -I.  -MMD -I/home/lspaya/miniconda3/envs/HWBench/share/verilator/include -I/home/lspaya/miniconda3/envs/HWBench/share/verilator/include/vltstd -DVERILATOR=1 -DVM_COVERAGE=0 -DVM_SC=0 -DVM_TIMING=0 -DVM_TRACE=1 -DVM_TRACE_FST=0 -DVM_TRACE_VCD=1 -DVM_TRACE_SAIF=0 -faligned-new -fcf-protection=none -Wno-bool-operation -Wno-int-in-bool-context -Wno-shadow -Wno-sign-compare -Wno-subobject-linkage -Wno-tautological-compare -Wno-uninitialized -Wno-unused-but-set-parameter -Wno-unused-but-set-variable -Wno-unused-parameter -Wno-unused-variable      -include Vtop__pch.h.fast -c Vtop___024root__5.cpp
INFO     cocotb:simulator.py:266 /home/lspaya/miniconda3/envs/HWBench/bin/x86_64-conda-linux-gnu-c++ -Os  -I.  -MMD -I/home/lspaya/miniconda3/envs/HWBench/share/verilator/include -I/home/lspaya/miniconda3/envs/HWBench/share/verilator/include/vltstd -DVERILATOR=1 -DVM_COVERAGE=0 -DVM_SC=0 -DVM_TIMING=0 -DVM_TRACE=1 -DVM_TRACE_FST=0 -DVM_TRACE_VCD=1 -DVM_TRACE_SAIF=0 -faligned-new -fcf-protection=none -Wno-bool-operation -Wno-int-in-bool-context -Wno-shadow -Wno-sign-compare -Wno-subobject-linkage -Wno-tautological-compare -Wno-uninitialized -Wno-unused-but-set-parameter -Wno-unused-but-set-variable -Wno-unused-parameter -Wno-unused-variable      -include Vtop__pch.h.fast -c Vtop___024root__6.cpp
INFO     cocotb:simulator.py:266 /home/lspaya/miniconda3/envs/HWBench/bin/x86_64-conda-linux-gnu-c++ -Os  -I.  -MMD -I/home/lspaya/miniconda3/envs/HWBench/share/verilator/include -I/home/lspaya/miniconda3/envs/HWBench/share/verilator/include/vltstd -DVERILATOR=1 -DVM_COVERAGE=0 -DVM_SC=0 -DVM_TIMING=0 -DVM_TRACE=1 -DVM_TRACE_FST=0 -DVM_TRACE_VCD=1 -DVM_TRACE_SAIF=0 -faligned-new -fcf-protection=none -Wno-bool-operation -Wno-int-in-bool-context -Wno-shadow -Wno-sign-compare -Wno-subobject-linkage -Wno-tautological-compare -Wno-uninitialized -Wno-unused-but-set-parameter -Wno-unused-but-set-variable -Wno-unused-parameter -Wno-unused-variable      -include Vtop__pch.h.fast -c Vtop__Dpi.cpp
INFO     cocotb:simulator.py:266 /home/lspaya/miniconda3/envs/HWBench/bin/x86_64-conda-linux-gnu-c++ -Os  -I.  -MMD -I/home/lspaya/miniconda3/envs/HWBench/share/verilator/include -I/home/lspaya/miniconda3/envs/HWBench/share/verilator/include/vltstd -DVERILATOR=1 -DVM_COVERAGE=0 -DVM_SC=0 -DVM_TIMING=0 -DVM_TRACE=1 -DVM_TRACE_FST=0 -DVM_TRACE_VCD=1 -DVM_TRACE_SAIF=0 -faligned-new -fcf-protection=none -Wno-bool-operation -Wno-int-in-bool-context -Wno-shadow -Wno-sign-compare -Wno-subobject-linkage -Wno-tautological-compare -Wno-uninitialized -Wno-unused-but-set-parameter -Wno-unused-but-set-variable -Wno-unused-parameter -Wno-unused-variable      -include Vtop__pch.h.fast -c Vtop__Trace__0.cpp
INFO     cocotb:simulator.py:266 /home/lspaya/miniconda3/envs/HWBench/bin/x86_64-conda-linux-gnu-c++   -I.  -MMD -I/home/lspaya/miniconda3/envs/HWBench/share/verilator/include -I/home/lspaya/miniconda3/envs/HWBench/share/verilator/include/vltstd -DVERILATOR=1 -DVM_COVERAGE=0 -DVM_SC=0 -DVM_TIMING=0 -DVM_TRACE=1 -DVM_TRACE_FST=0 -DVM_TRACE_VCD=1 -DVM_TRACE_SAIF=0 -faligned-new -fcf-protection=none -Wno-bool-operation -Wno-int-in-bool-context -Wno-shadow -Wno-sign-compare -Wno-subobject-linkage -Wno-tautological-compare -Wno-uninitialized -Wno-unused-but-set-parameter -Wno-unused-but-set-variable -Wno-unused-parameter -Wno-unused-variable      -x c++-header Vtop__pch.h -o Vtop__pch.h.slow.gch
INFO     cocotb:simulator.py:266 /home/lspaya/miniconda3/envs/HWBench/bin/x86_64-conda-linux-gnu-c++   -I.  -MMD -I/home/lspaya/miniconda3/envs/HWBench/share/verilator/include -I/home/lspaya/miniconda3/envs/HWBench/share/verilator/include/vltstd -DVERILATOR=1 -DVM_COVERAGE=0 -DVM_SC=0 -DVM_TIMING=0 -DVM_TRACE=1 -DVM_TRACE_FST=0 -DVM_TRACE_VCD=1 -DVM_TRACE_SAIF=0 -faligned-new -fcf-protection=none -Wno-bool-operation -Wno-int-in-bool-context -Wno-shadow -Wno-sign-compare -Wno-subobject-linkage -Wno-tautological-compare -Wno-uninitialized -Wno-unused-but-set-parameter -Wno-unused-but-set-variable -Wno-unused-parameter -Wno-unused-variable      -include Vtop__pch.h.slow -c Vtop__ConstPool__0__Slow.cpp
INFO     cocotb:simulator.py:266 /home/lspaya/miniconda3/envs/HWBench/bin/x86_64-conda-linux-gnu-c++   -I.  -MMD -I/home/lspaya/miniconda3/envs/HWBench/share/verilator/include -I/home/lspaya/miniconda3/envs/HWBench/share/verilator/include/vltstd -DVERILATOR=1 -DVM_COVERAGE=0 -DVM_SC=0 -DVM_TIMING=0 -DVM_TRACE=1 -DVM_TRACE_FST=0 -DVM_TRACE_VCD=1 -DVM_TRACE_SAIF=0 -faligned-new -fcf-protection=none -Wno-bool-operation -Wno-int-in-bool-context -Wno-shadow -Wno-sign-compare -Wno-subobject-linkage -Wno-tautological-compare -Wno-uninitialized -Wno-unused-but-set-parameter -Wno-unused-but-set-variable -Wno-unused-parameter -Wno-unused-variable      -include Vtop__pch.h.slow -c Vtop___024root__Slow.cpp
INFO     cocotb:simulator.py:266 /home/lspaya/miniconda3/envs/HWBench/bin/x86_64-conda-linux-gnu-c++   -I.  -MMD -I/home/lspaya/miniconda3/envs/HWBench/share/verilator/include -I/home/lspaya/miniconda3/envs/HWBench/share/verilator/include/vltstd -DVERILATOR=1 -DVM_COVERAGE=0 -DVM_SC=0 -DVM_TIMING=0 -DVM_TRACE=1 -DVM_TRACE_FST=0 -DVM_TRACE_VCD=1 -DVM_TRACE_SAIF=0 -faligned-new -fcf-protection=none -Wno-bool-operation -Wno-int-in-bool-context -Wno-shadow -Wno-sign-compare -Wno-subobject-linkage -Wno-tautological-compare -Wno-uninitialized -Wno-unused-but-set-parameter -Wno-unused-but-set-variable -Wno-unused-parameter -Wno-unused-variable      -include Vtop__pch.h.slow -c Vtop___024root__0__Slow.cpp
INFO     cocotb:simulator.py:266 /home/lspaya/miniconda3/envs/HWBench/bin/x86_64-conda-linux-gnu-c++   -I.  -MMD -I/home/lspaya/miniconda3/envs/HWBench/share/verilator/include -I/home/lspaya/miniconda3/envs/HWBench/share/verilator/include/vltstd -DVERILATOR=1 -DVM_COVERAGE=0 -DVM_SC=0 -DVM_TIMING=0 -DVM_TRACE=1 -DVM_TRACE_FST=0 -DVM_TRACE_VCD=1 -DVM_TRACE_SAIF=0 -faligned-new -fcf-protection=none -Wno-bool-operation -Wno-int-in-bool-context -Wno-shadow -Wno-sign-compare -Wno-subobject-linkage -Wno-tautological-compare -Wno-uninitialized -Wno-unused-but-set-parameter -Wno-unused-but-set-variable -Wno-unused-parameter -Wno-unused-variable      -include Vtop__pch.h.slow -c Vtop___024root__1__Slow.cpp
INFO     cocotb:simulator.py:266 /home/lspaya/miniconda3/envs/HWBench/bin/x86_64-conda-linux-gnu-c++   -I.  -MMD -I/home/lspaya/miniconda3/envs/HWBench/share/verilator/include -I/home/lspaya/miniconda3/envs/HWBench/share/verilator/include/vltstd -DVERILATOR=1 -DVM_COVERAGE=0 -DVM_SC=0 -DVM_TIMING=0 -DVM_TRACE=1 -DVM_TRACE_FST=0 -DVM_TRACE_VCD=1 -DVM_TRACE_SAIF=0 -faligned-new -fcf-protection=none -Wno-bool-operation -Wno-int-in-bool-context -Wno-shadow -Wno-sign-compare -Wno-subobject-linkage -Wno-tautological-compare -Wno-uninitialized -Wno-unused-but-set-parameter -Wno-unused-but-set-variable -Wno-unused-parameter -Wno-unused-variable      -include Vtop__pch.h.slow -c Vtop___024root__2__Slow.cpp
INFO     cocotb:simulator.py:266 /home/lspaya/miniconda3/envs/HWBench/bin/x86_64-conda-linux-gnu-c++   -I.  -MMD -I/home/lspaya/miniconda3/envs/HWBench/share/verilator/include -I/home/lspaya/miniconda3/envs/HWBench/share/verilator/include/vltstd -DVERILATOR=1 -DVM_COVERAGE=0 -DVM_SC=0 -DVM_TIMING=0 -DVM_TRACE=1 -DVM_TRACE_FST=0 -DVM_TRACE_VCD=1 -DVM_TRACE_SAIF=0 -faligned-new -fcf-protection=none -Wno-bool-operation -Wno-int-in-bool-context -Wno-shadow -Wno-sign-compare -Wno-subobject-linkage -Wno-tautological-compare -Wno-uninitialized -Wno-unused-but-set-parameter -Wno-unused-but-set-variable -Wno-unused-parameter -Wno-unused-variable      -include Vtop__pch.h.slow -c Vtop___024unit__Slow.cpp
INFO     cocotb:simulator.py:266 /home/lspaya/miniconda3/envs/HWBench/bin/x86_64-conda-linux-gnu-c++   -I.  -MMD -I/home/lspaya/miniconda3/envs/HWBench/share/verilator/include -I/home/lspaya/miniconda3/envs/HWBench/share/verilator/include/vltstd -DVERILATOR=1 -DVM_COVERAGE=0 -DVM_SC=0 -DVM_TIMING=0 -DVM_TRACE=1 -DVM_TRACE_FST=0 -DVM_TRACE_VCD=1 -DVM_TRACE_SAIF=0 -faligned-new -fcf-protection=none -Wno-bool-operation -Wno-int-in-bool-context -Wno-shadow -Wno-sign-compare -Wno-subobject-linkage -Wno-tautological-compare -Wno-uninitialized -Wno-unused-but-set-parameter -Wno-unused-but-set-variable -Wno-unused-parameter -Wno-unused-variable      -include Vtop__pch.h.slow -c Vtop_NPU_HW_params_pkg__Slow.cpp
INFO     cocotb:simulator.py:266 /home/lspaya/miniconda3/envs/HWBench/bin/x86_64-conda-linux-gnu-c++   -I.  -MMD -I/home/lspaya/miniconda3/envs/HWBench/share/verilator/include -I/home/lspaya/miniconda3/envs/HWBench/share/verilator/include/vltstd -DVERILATOR=1 -DVM_COVERAGE=0 -DVM_SC=0 -DVM_TIMING=0 -DVM_TRACE=1 -DVM_TRACE_FST=0 -DVM_TRACE_VCD=1 -DVM_TRACE_SAIF=0 -faligned-new -fcf-protection=none -Wno-bool-operation -Wno-int-in-bool-context -Wno-shadow -Wno-sign-compare -Wno-subobject-linkage -Wno-tautological-compare -Wno-uninitialized -Wno-unused-but-set-parameter -Wno-unused-but-set-variable -Wno-unused-parameter -Wno-unused-variable      -include Vtop__pch.h.slow -c Vtop_NPU_ISA_pkg__Slow.cpp
INFO     cocotb:simulator.py:266 /home/lspaya/miniconda3/envs/HWBench/bin/x86_64-conda-linux-gnu-c++   -I.  -MMD -I/home/lspaya/miniconda3/envs/HWBench/share/verilator/include -I/home/lspaya/miniconda3/envs/HWBench/share/verilator/include/vltstd -DVERILATOR=1 -DVM_COVERAGE=0 -DVM_SC=0 -DVM_TIMING=0 -DVM_TRACE=1 -DVM_TRACE_FST=0 -DVM_TRACE_VCD=1 -DVM_TRACE_SAIF=0 -faligned-new -fcf-protection=none -Wno-bool-operation -Wno-int-in-bool-context -Wno-shadow -Wno-sign-compare -Wno-subobject-linkage -Wno-tautological-compare -Wno-uninitialized -Wno-unused-but-set-parameter -Wno-unused-but-set-variable -Wno-unused-parameter -Wno-unused-variable      -include Vtop__pch.h.slow -c Vtop__Syms__ctor__0__Slow.cpp
INFO     cocotb:simulator.py:266 /home/lspaya/miniconda3/envs/HWBench/bin/x86_64-conda-linux-gnu-c++   -I.  -MMD -I/home/lspaya/miniconda3/envs/HWBench/share/verilator/include -I/home/lspaya/miniconda3/envs/HWBench/share/verilator/include/vltstd -DVERILATOR=1 -DVM_COVERAGE=0 -DVM_SC=0 -DVM_TIMING=0 -DVM_TRACE=1 -DVM_TRACE_FST=0 -DVM_TRACE_VCD=1 -DVM_TRACE_SAIF=0 -faligned-new -fcf-protection=none -Wno-bool-operation -Wno-int-in-bool-context -Wno-shadow -Wno-sign-compare -Wno-subobject-linkage -Wno-tautological-compare -Wno-uninitialized -Wno-unused-but-set-parameter -Wno-unused-but-set-variable -Wno-unused-parameter -Wno-unused-variable      -include Vtop__pch.h.slow -c Vtop__Syms__ctor__1__Slow.cpp
