tb/vcd/D_FF_tb.vcd
$date
	Tue May 26 19:06:43 2026
$end
$version
	ModelSim Version 10.5b
$end
$timescale
	1ps
$end

$scope module D_FF_tb $end
$var parameter 32 ! BIT_WIDTH $end
$var parameter 32 " CLK_HALF $end
$var parameter 32 # RESET_CYC $end
$var parameter 32 $ TIMEOUT_NS $end
$var reg 1 % clk $end
$var reg 1 & rst $end
$var reg 8 ' in [7:0] $end
$var reg 8 ( out [7:0] $end
$var integer 32 ) pass_count $end
$var integer 32 * fail_count $end

$scope task chk $end
$upscope $end

$scope task do_reset $end
$upscope $end

$scope begin ap_dff_capture $end
$upscope $end

$scope begin ap_no_x_out $end
$upscope $end

$scope module dut $end
$var parameter 32 + BIT_WIDTH $end
$var wire 1 , clk $end
$var wire 1 - rst $end
$var wire 1 . in [7] $end
$var wire 1 / in [6] $end
$var wire 1 0 in [5] $end
$var wire 1 1 in [4] $end
$var wire 1 2 in [3] $end
$var wire 1 3 in [2] $end
$var wire 1 4 in [1] $end
$var wire 1 5 in [0] $end
$var reg 8 6 out [7:0] $end
$upscope $end
$upscope $end
$enddefinitions $end
#0
$dumpvars
0%
1&
b10101011 '
bx (
bx 6
b1000 !
b101 "
b11 #
b1001110001000 $
b1000 +
b0 )
b0 *
0,
1-
15
14
03
12
01
10
0/
1.
$end
#5000
1%
1,
b0 6
b0 (
#10000
0%
0,
#15000
1%
1,
#20000
0%
0,
#25000
1%
1,
#30000
0%
0,
b1 )
0&
1&
b0 '
05
04
02
00
0.
#35000
1%
1,
#40000
0%
0,
#45000
1%
1,
#50000
0%
0,
#55000
1%
1,
#60000
0%
0,
0&
0-
#65000
1%
1,
#70000
0%
0,
#75000
1%
1,
#80000
0%
0,
b1011010 '
14
12
11
1/
#85000
1%
1,
b1011010 6
b1011010 (
#90000
0%
0,
b10 )
1&
b0 '
1-
04
02
01
0/
#95000
1%
1,
b0 6
b0 (
#100000
0%
0,
#105000
1%
1,
#110000
0%
0,
#115000
1%
1,
#120000
0%
0,
0&
0-
#125000
1%
1,
#130000
0%
0,
#135000
1%
1,
#140000
0%
0,
#145000
1%
1,
#150000
0%
0,
b11 )
#155000
1%
1,
#160000
0%
0,
b10001 '
15
11
#165000
1%
1,
b10001 6
b10001 (
#170000
0%
0,
b100 )
#175000
1%
1,
#180000
0%
0,
b100010 '
05
14
01
10
#185000
1%
1,
b100010 6
b100010 (
#190000
0%
0,
b101 )
#195000
1%
1,
#200000
0%
0,
b110011 '
15
11
#205000
1%
1,
b110011 6
b110011 (
#210000
0%
0,
b110 )
#215000
1%
1,
#220000
0%
0,
b1000100 '
05
04
13
01
00
1/
#225000
1%
1,
b1000100 6
b1000100 (
#230000
0%
0,
b111 )
#235000
1%
1,
#240000
0%
0,
b1010101 '
15
11
#245000
1%
1,
b1010101 6
b1010101 (
#250000
0%
0,
b1000 )
#255000
1%
1,
#260000
0%
0,
b1100110 '
05
14
01
10
#265000
1%
1,
b1100110 6
b1100110 (
#270000
0%
0,
b1001 )
#275000
1%
1,
#280000
0%
0,
b1110111 '
15
11
#285000
1%
1,
b1110111 6
b1110111 (
#290000
0%
0,
b1010 )
1&
b0 '
1-
05
04
03
01
00
0/
#295000
1%
1,
b0 6
b0 (
#300000
0%
0,
#305000
1%
1,
#310000
0%
0,
#315000
1%
1,
#320000
0%
0,
0&
0-
#325000
1%
1,
#330000
0%
0,
#335000
1%
1,
#340000
0%
0,
b11111111 '
15
14
13
12
11
10
1/
1.
#345000
1%
1,
b11111111 6
b11111111 (
#350000
0%
0,
b1011 )
#355000
1%
1,
#360000
0%
0,
1&
1-
#365000
1%
1,
b0 6
b0 (
#370000
0%
0,
b1100 )
0&
