tb/vcd/psb_tb.vcd
$date
	Tue May 26 19:06:45 2026
$end
$version
	ModelSim Version 10.5b
$end
$timescale
	1ps
$end

$scope module psb_tb $end
$var parameter 32 ! ACCUM_W $end
$var parameter 32 " HEIGHT $end
$var parameter 32 # LENGTH $end
$var parameter 32 $ CLK_HALF $end
$var parameter 32 % RESET_CYC $end
$var parameter 32 & TIMEOUT_NS $end
$var reg 1 ' clk $end
$var reg 1 ( rst $end
$var reg 1 ) psb_acc $end
$var reg 1 * psb_flush $end
$var reg 1 + row_valid $end
$var reg 128 , requant_row_out [127:0] $end
$var reg 2 - row_index_out [1:0] $end
$var reg 1 . row_out_valid $end
$var reg 1 / acc_done $end
$var reg 1 0 flush_done $end
$var reg 1 1 busy $end
$var integer 32 2 pass_count $end
$var integer 32 3 fail_count $end

$scope task chk $end
$upscope $end

$scope task do_reset $end
$upscope $end

$scope task do_accumulate $end
$upscope $end

$scope task do_flush $end
$upscope $end

$scope begin ap_no_x_valid $end
$upscope $end

$scope begin ap_no_x_busy $end
$upscope $end

$scope begin ap_done_mutex $end
$upscope $end

$scope begin cp_acc_done $end
$upscope $end

$scope begin cp_flush_done $end
$upscope $end

$scope module dut $end
$var parameter 32 4 ACCUMULATOR_BITWIDTH $end
$var parameter 32 5 ARRAY_HEIGHT $end
$var parameter 32 6 ARRAY_LENGTH $end
$var wire 1 7 clk $end
$var wire 1 8 rst $end
$var wire 1 9 psb_acc $end
$var wire 1 : psb_flush $end
$var wire 1 ; row_valid $end
$var reg 128 < requant_row_out [127:0] $end
$var reg 2 = row_index_out [1:0] $end
$var reg 1 > row_out_valid $end
$var reg 1 ? acc_done $end
$var reg 1 @ flush_done $end
$var reg 1 A busy $end
$var reg 3 B ps [2:0] $end
$var reg 3 C ns [2:0] $end
$var reg 2 D acc_row_count [1:0] $end
$var reg 2 E flush_row_count [1:0] $end
$var reg 1 F last_acc_row $end
$var reg 1 G last_flush_row $end
$upscope $end
$upscope $end
$enddefinitions $end
#0
$dumpvars
0'
1(
0)
0*
0+
bx ,
bx -
0.
0/
00
01
bx <
bx =
0>
0?
0@
0A
bx B
b0 C
bx D
bx E
xF
xG
b100000 !
b100 "
b100 #
b101 $
b100 %
b1100001101010000 &
b100000 4
b100 5
b100 6
b0 2
b0 3
07
18
09
0:
0;
$end
#5000
1'
17
b0 B
b0 D
b0 E
0G
0F
b0 =
bx00000000000000000000000000000000 <
bx0000000000000000000000000000000000000000000000000000000000000000 <
bx000000000000000000000000000000000000000000000000000000000000000000000000000000000000000000000000 <
b0 <
1A
0A
b0 ,
b0 -
#10000
0'
07
#15000
1'
17
#20000
0'
07
#25000
1'
17
#30000
0'
07
#35000
1'
17
#40000
0'
07
0(
08
#45000
1'
17
#50000
0'
07
b1 2
b10 2
b11 2
b100 2
1(
18
#55000
1'
17
#60000
0'
07
#65000
1'
17
#70000
0'
07
#75000
1'
17
#80000
0'
07
#85000
1'
17
#90000
0'
07
0(
08
#95000
1'
17
#100000
0'
07
b101 2
#105000
1'
17
#110000
0'
07
1)
1+
19
1;
b1 C
#115000
1'
17
b1 B
b1 D
b1 <
b1000000000000000000000000000000001 <
b110000000000000000000000000000001000000000000000000000000000000001 <
b100000000000000000000000000000000110000000000000000000000000000001000000000000000000000000000000001 <
1A
11
b100000000000000000000000000000000110000000000000000000000000000001000000000000000000000000000000001 ,
#120000
0'
07
0)
0+
09
0;
#125000
1'
17
#130000
0'
07
1+
1;
#135000
1'
17
b10 D
#140000
0'
07
0+
0;
#145000
1'
17
#150000
0'
07
1+
1;
#155000
1'
17
b11 D
1F
b11 C
#160000
0'
07
0+
0;
b1 C
#165000
1'
17
#170000
0'
07
1+
1;
b11 C
#175000
1'
17
b11 B
b0 C
0A
1?
1/
01
#180000
0'
07
0+
0;
#180001
b110 2
#185000
1'
17
b0 B
0?
1A
0A
0/
#190000
0'
07
b111 2
#195000
1'
17
b0 D
0F
#200000
0'
07
1*
1:
b10 C
#205000
1'
17
b10 B
1A
1>
1.
11
#210000
0'
07
0*
b1000 2
b1001 2
b1010 2
b1011 2
b1100 2
b1101 2
0:
#215000
1'
17
b1 E
b1 =
b100000000000000000000000000000000110000000000000000000000000000001000000000000000000000000000000101 <
b100000000000000000000000000000000110000000000000000000000000000011000000000000000000000000000000101 <
b100000000000000000000000000000001110000000000000000000000000000011000000000000000000000000000000101 <
b1000000000000000000000000000000001110000000000000000000000000000011000000000000000000000000000000101 <
b1000000000000000000000000000000001110000000000000000000000000000011000000000000000000000000000000101 ,
b1 -
#220000
0'
07
b1110 2
b1111 2
b10000 2
b10001 2
b10010 2
b10011 2
#225000
1'
17
b10 E
b10 =
b1000000000000000000000000000000001110000000000000000000000000000011000000000000000000000000000001001 <
b1000000000000000000000000000000001110000000000000000000000000000101000000000000000000000000000001001 <
b1000000000000000000000000000000010110000000000000000000000000000101000000000000000000000000000001001 <
b1100000000000000000000000000000010110000000000000000000000000000101000000000000000000000000000001001 <
b1100000000000000000000000000000010110000000000000000000000000000101000000000000000000000000000001001 ,
b10 -
#230000
0'
07
b10100 2
b10101 2
b10110 2
b10111 2
b11000 2
b11001 2
#235000
1'
17
b11 E
1G
b100 C
b11 =
b1100000000000000000000000000000010110000000000000000000000000000101000000000000000000000000000001101 <
b1100000000000000000000000000000010110000000000000000000000000000111000000000000000000000000000001101 <
b1100000000000000000000000000000011110000000000000000000000000000111000000000000000000000000000001101 <
b10000000000000000000000000000000011110000000000000000000000000000111000000000000000000000000000001101 <
b10000000000000000000000000000000011110000000000000000000000000000111000000000000000000000000000001101 ,
b11 -
#240000
0'
07
b11010 2
b11011 2
b11100 2
b11101 2
b11110 2
b11111 2
#245000
1'
17
b100 B
b0 C
0>
0A
1@
10
01
0.
#250000
0'
07
b100000 2
#255000
1'
17
b0 B
b10000000000000000000000000000000011110000000000000000000000000000111000000000000000000000000000000000 <
b10000000000000000000000000000000011110000000000000000000000000000000000000000000000000000000000000000 <
b10000000000000000000000000000000000000000000000000000000000000000000000000000000000000000000000000000 <
b0 <
0@
1A
0A
00
b0 ,
#260000
0'
07
b100001 2
1(
18
#265000
1'
17
b0 E
0G
b0 =
b0 -
#270000
0'
07
#275000
1'
17
#280000
0'
07
#285000
1'
17
#290000
0'
07
#295000
1'
17
#300000
0'
07
0(
08
#305000
1'
17
#310000
0'
07
#315000
1'
17
#320000
0'
07
1)
19
b1 C
#325000
1'
17
b1 B
1A
11
#330000
0'
07
0)
b100010 2
09
#335000
1'
17
#340000
0'
07
1+
1;
#345000
1'
17
b1 D
#350000
0'
07
#355000
1'
17
b10 D
#360000
0'
07
#365000
1'
17
b11 D
1F
b11 C
#370000
0'
07
#375000
1'
17
b11 B
b0 C
0A
1?
1/
01
#380000
0'
07
#385000
1'
17
b0 B
0?
1A
0A
0/
#390000
0'
07
#395000
1'
17
b0 D
0F
#400000
0'
07
#405000
1'
17
#410000
0'
07
0+
0;
#415000
1'
17
#420000
0'
07
#425000
1'
17
#430000
0'
07
b100011 2
1(
18
#435000
1'
17
#440000
0'
07
#445000
1'
17
#450000
0'
07
#455000
1'
17
#460000
0'
07
#465000
1'
17
#470000
0'
07
0(
08
#475000
1'
17
#480000
0'
07
#485000
1'
17
#490000
0'
07
1)
19
b1 C
#495000
1'
17
b1 B
1A
11
#500000
0'
07
0)
09
#505000
1'
17
#510000
0'
07
1+
1;
#515000
1'
17
b1 D
b1101111010101101 <
b110111101010110100000000000000001101111010101101 <
b11011110101011010000000000000000110111101010110100000000000000001101111010101101 <
b1101111010101101000000000000000011011110101011010000000000000000110111101010110100000000000000001101111010101101 <
b1101111010101101000000000000000011011110101011010000000000000000110111101010110100000000000000001101111010101101 ,
#520000
0'
07
0+
1(
18
0;
#525000
1'
17
b0 B
b0 D
b1101111010101101000000000000000011011110101011010000000000000000110111101010110100000000000000000000000000000000 <
b1101111010101101000000000000000011011110101011010000000000000000000000000000000000000000000000000000000000000000 <
b1101111010101101000000000000000000000000000000000000000000000000000000000000000000000000000000000000000000000000 <
b0 <
b0 C
0A
01
b0 ,
#530000
0'
07
#535000
1'
17
#540000
0'
07
#545000
1'
17
#550000
0'
07
#555000
1'
17
#560000
0'
07
0(
08
#565000
1'
17
#570000
0'
07
b100100 2
b100101 2
b100110 2
