tb/vcd/RegisterChain_tb.vcd
$date
	Tue May 26 19:06:46 2026
$end
$version
	ModelSim Version 10.5b
$end
$timescale
	1ps
$end

$scope module RegisterChain_tb $end
$var parameter 32 ! BIT_WIDTH $end
$var parameter 32 " CLK_HALF $end
$var parameter 32 # RESET_CYC $end
$var parameter 32 $ TIMEOUT_NS $end
$var reg 1 % clk $end
$var reg 1 & rst $end
$var reg 8 ' in0 [7:0] $end
$var reg 8 ( out0 [7:0] $end
$var reg 8 ) in1 [7:0] $end
$var reg 8 * out1 [7:0] $end
$var reg 8 + in4 [7:0] $end
$var reg 8 , out4 [7:0] $end
$var integer 32 - pass_count $end
$var integer 32 . fail_count $end

$scope task chk $end
$upscope $end

$scope task do_reset $end
$upscope $end

$scope begin ap_no_x_out_c1 $end
$upscope $end

$scope begin ap_no_x_out_c4 $end
$upscope $end

$scope module dut0 $end
$var parameter 32 / CHAIN_LENGTH $end
$var parameter 32 0 BIT_WIDTH $end
$var wire 1 1 clk $end
$var wire 1 2 rst $end
$var wire 1 3 in [7] $end
$var wire 1 4 in [6] $end
$var wire 1 5 in [5] $end
$var wire 1 6 in [4] $end
$var wire 1 7 in [3] $end
$var wire 1 8 in [2] $end
$var wire 1 9 in [1] $end
$var wire 1 : in [0] $end
$var reg 8 ; out [7:0] $end

$scope begin gen_passthrough $end
$upscope $end
$upscope $end

$scope module dut1 $end
$var parameter 32 < CHAIN_LENGTH $end
$var parameter 32 = BIT_WIDTH $end
$var wire 1 > clk $end
$var wire 1 ? rst $end
$var wire 1 @ in [7] $end
$var wire 1 A in [6] $end
$var wire 1 B in [5] $end
$var wire 1 C in [4] $end
$var wire 1 D in [3] $end
$var wire 1 E in [2] $end
$var wire 1 F in [1] $end
$var wire 1 G in [0] $end
$var reg 8 H out [7:0] $end

$scope begin gen_single $end

$scope module singleFF $end
$var parameter 32 I BIT_WIDTH $end
$var wire 1 > clk $end
$var wire 1 ? rst $end
$var wire 1 @ in [7] $end
$var wire 1 A in [6] $end
$var wire 1 B in [5] $end
$var wire 1 C in [4] $end
$var wire 1 D in [3] $end
$var wire 1 E in [2] $end
$var wire 1 F in [1] $end
$var wire 1 G in [0] $end
$var reg 8 J out [7:0] $end
$upscope $end
$upscope $end
$upscope $end

$scope module dut4 $end
$var parameter 32 K CHAIN_LENGTH $end
$var parameter 32 L BIT_WIDTH $end
$var wire 1 M clk $end
$var wire 1 N rst $end
$var wire 1 O in [7] $end
$var wire 1 P in [6] $end
$var wire 1 Q in [5] $end
$var wire 1 R in [4] $end
$var wire 1 S in [3] $end
$var wire 1 T in [2] $end
$var wire 1 U in [1] $end
$var wire 1 V in [0] $end
$var reg 8 W out [7:0] $end

$scope begin gen_chain $end

$scope begin gen_FFChain[3] $end
$var parameter 32 X i $end

$scope begin gen_last $end

$scope module lastFF $end
$var parameter 32 Y BIT_WIDTH $end
$var wire 1 M clk $end
$var wire 1 N rst $end
$var wire 1 Z in [7] $end
$var wire 1 [ in [6] $end
$var wire 1 \ in [5] $end
$var wire 1 ] in [4] $end
$var wire 1 ^ in [3] $end
$var wire 1 _ in [2] $end
$var wire 1 ` in [1] $end
$var wire 1 a in [0] $end
$var reg 8 b out [7:0] $end
$upscope $end
$upscope $end
$upscope $end

$scope begin gen_FFChain[2] $end
$var parameter 32 c i $end

$scope begin gen_middle $end

$scope module intermediateFF $end
$var parameter 32 d BIT_WIDTH $end
$var wire 1 M clk $end
$var wire 1 N rst $end
$var wire 1 e in [7] $end
$var wire 1 f in [6] $end
$var wire 1 g in [5] $end
$var wire 1 h in [4] $end
$var wire 1 i in [3] $end
$var wire 1 j in [2] $end
$var wire 1 k in [1] $end
$var wire 1 l in [0] $end
$var reg 8 m out [7:0] $end
$upscope $end
$upscope $end
$upscope $end

$scope begin gen_FFChain[1] $end
$var parameter 32 n i $end

$scope begin gen_middle $end

$scope module intermediateFF $end
$var parameter 32 o BIT_WIDTH $end
$var wire 1 M clk $end
$var wire 1 N rst $end
$var wire 1 p in [7] $end
$var wire 1 q in [6] $end
$var wire 1 r in [5] $end
$var wire 1 s in [4] $end
$var wire 1 t in [3] $end
$var wire 1 u in [2] $end
$var wire 1 v in [1] $end
$var wire 1 w in [0] $end
$var reg 8 x out [7:0] $end
$upscope $end
$upscope $end
$upscope $end

$scope begin gen_FFChain[0] $end
$var parameter 32 y i $end

$scope begin gen_first $end

$scope module firstFF $end
$var parameter 32 z BIT_WIDTH $end
$var wire 1 M clk $end
$var wire 1 N rst $end
$var wire 1 O in [7] $end
$var wire 1 P in [6] $end
$var wire 1 Q in [5] $end
$var wire 1 R in [4] $end
$var wire 1 S in [3] $end
$var wire 1 T in [2] $end
$var wire 1 U in [1] $end
$var wire 1 V in [0] $end
$var reg 8 { out [7:0] $end
$upscope $end
$upscope $end
$upscope $end
$upscope $end
$upscope $end
$upscope $end
$enddefinitions $end
#0
$dumpvars
0%
0&
b0 '
b0 (
bx )
bx *
bx +
bx ,
b0 ;
bx H
bx J
bx W
bx {
bx x
bx m
bx b
b1000 !
b101 "
b100 #
b10011100010000 $
b0 y
b1 n
b10 c
b11 X
b0 /
b1000 0
b1 <
b1000 =
b100 K
b1000 L
b1000 I
b1000 z
b1000 o
b1000 d
b1000 Y
b0 -
b0 .
01
02
0:
09
08
07
06
05
04
03
0>
0?
xG
xF
xE
xD
xC
xB
xA
x@
0M
0N
xV
xU
xT
xS
xR
xQ
xP
xO
xw
xv
xu
xt
xs
xr
xq
xp
xl
xk
xj
xi
xh
xg
xf
xe
xa
x`
x_
x^
x]
x\
x[
xZ
$end
#1000
b1 -
b10100101 '
1:
18
15
13
b10100101 ;
b10100101 (
#2000
b10 -
b11111111 '
19
17
16
14
b11111111 ;
b11111111 (
#3000
b11 -
b0 '
1&
b0 )
b0 +
1N
1?
12
0V
0U
0T
0S
0R
0Q
0P
0O
0G
0F
0E
0D
0C
0B
0A
0@
0:
09
08
07
06
05
04
03
b0 ;
b0 (
#5000
1%
11
1M
1>
b0 J
b0 {
b0 x
b0 m
b0 b
b0 W
b0 H
b0 *
b0 ,
0a
0`
0_
0^
0]
0\
0[
0Z
0l
0k
0j
0i
0h
0g
0f
0e
0w
0v
0u
0t
0s
0r
0q
0p
#10000
0%
01
0M
0>
#15000
1%
11
1M
1>
#20000
0%
01
0M
0>
#25000
1%
11
1M
1>
#30000
0%
01
0M
0>
#35000
1%
11
1M
1>
#40000
0%
01
0M
0>
0&
0N
0?
02
#45000
1%
11
1M
1>
#50000
0%
01
0M
0>
#55000
1%
11
1M
1>
#60000
0%
01
0M
0>
b10001 )
1G
1C
#65000
1%
11
1M
1>
b10001 J
b10001 H
b10001 *
#70000
0%
01
0M
0>
b100 -
#75000
1%
11
1M
1>
#80000
0%
01
0M
0>
b100010 )
0G
1F
0C
1B
#85000
1%
11
1M
1>
b100010 J
b100010 H
b100010 *
#90000
0%
01
0M
0>
b101 -
#95000
1%
11
1M
1>
#100000
0%
01
0M
0>
b110011 )
1G
1C
#105000
1%
11
1M
1>
b110011 J
b110011 H
b110011 *
#110000
0%
01
0M
0>
b110 -
#115000
1%
11
1M
1>
#120000
0%
01
0M
0>
b1000100 )
0G
0F
1E
0C
0B
1A
#125000
1%
11
1M
1>
b1000100 J
b1000100 H
b1000100 *
#130000
0%
01
0M
0>
b111 -
1&
b0 )
1N
1?
12
0E
0A
#135000
1%
11
1M
1>
b0 J
b0 H
b0 *
#140000
0%
01
0M
0>
#145000
1%
11
1M
1>
#150000
0%
01
0M
0>
#155000
1%
11
1M
1>
#160000
0%
01
0M
0>
#165000
1%
11
1M
1>
#170000
0%
01
0M
0>
0&
0N
0?
02
#175000
1%
11
1M
1>
#180000
0%
01
0M
0>
#185000
1%
11
1M
1>
#190000
0%
01
0M
0>
b11011110 +
1U
1T
1S
1R
1P
1O
#195000
1%
11
1M
1>
b11011110 {
1v
1u
1t
1s
1q
1p
#200000
0%
01
0M
0>
b10101101 +
1V
0U
0R
1Q
0P
#205000
1%
11
1M
1>
b10101101 {
b11011110 x
1k
1j
1i
1h
1f
1e
1w
0v
0s
1r
0q
#210000
0%
01
0M
0>
b10111110 +
0V
1U
1R
#215000
1%
11
1M
1>
b10111110 {
b10101101 x
b11011110 m
1`
1_
1^
1]
1[
1Z
1l
0k
0h
1g
0f
0w
1v
1s
#220000
0%
01
0M
0>
b11101111 +
1V
0R
1P
#225000
1%
11
1M
1>
b11101111 {
b10111110 x
b10101101 m
b11011110 b
b11011110 W
b11011110 ,
1a
0`
0]
1\
0[
0l
1k
1h
1w
0s
1q
#230000
0%
01
0M
0>
b1000 -
b0 +
0V
0U
0T
0S
0Q
0P
0O
#235000
1%
11
1M
1>
b0 {
b11101111 x
b10111110 m
b10101101 b
b10101101 W
b10101101 ,
0a
1`
1]
1l
0h
1f
0w
0v
0u
0t
0r
0q
0p
#240000
0%
01
0M
0>
b1001 -
#245000
1%
11
1M
1>
b0 x
b11101111 m
b10111110 b
b10111110 W
b10111110 ,
1a
0]
1[
0l
0k
0j
0i
0g
0f
0e
#250000
0%
01
0M
0>
b1010 -
#255000
1%
11
1M
1>
b0 m
b11101111 b
b11101111 W
b11101111 ,
0a
0`
0_
0^
0\
0[
0Z
#260000
0%
01
0M
0>
b1011 -
1&
1N
1?
12
#265000
1%
11
1M
1>
b0 b
b0 W
b0 ,
#270000
0%
01
0M
0>
#275000
1%
11
1M
1>
#280000
0%
01
0M
0>
#285000
1%
11
1M
1>
#290000
0%
01
0M
0>
#295000
1%
11
1M
1>
#300000
0%
01
0M
0>
0&
0N
0?
02
#305000
1%
11
1M
1>
#310000
0%
01
0M
0>
#315000
1%
11
1M
1>
#320000
0%
01
0M
0>
b10101010 +
1U
1S
1Q
1O
#325000
1%
11
1M
1>
b10101010 {
1v
1t
1r
1p
#330000
0%
01
0M
0>
#335000
1%
11
1M
1>
b10101010 x
1k
1i
1g
1e
#340000
0%
01
0M
0>
b10111011 +
1V
1R
#345000
1%
11
1M
1>
b10111011 {
b10101010 m
1`
1^
1\
1Z
1w
1s
#350000
0%
01
0M
0>
#355000
1%
11
1M
1>
b10111011 x
b10101010 b
b10101010 W
b10101010 ,
1l
1h
#360000
0%
01
0M
0>
1&
b0 +
1N
1?
12
0V
0U
0S
0R
0Q
0O
#365000
1%
11
1M
1>
b0 {
b0 x
b0 m
b0 b
b0 W
b0 ,
0`
0^
0\
0Z
0l
0k
0i
0h
0g
0e
0w
0v
0t
0s
0r
0p
#370000
0%
01
0M
0>
#375000
1%
11
1M
1>
#380000
0%
01
0M
0>
#385000
1%
11
1M
1>
#390000
0%
01
0M
0>
#395000
1%
11
1M
1>
#400000
0%
01
0M
0>
0&
b1100 -
